{
    "database": {
        "block0File": {
            "blockFormat": "PROTO",
            "blockPath": "conf/data.0.testnet"
        },
        "dbName": "testnet",
        "url": "mongodb://mongo:27017/testnet"
    },
    "logs": {
        "severity": "info",
        "toStdout": true
    },
    "networking": {
        "keysPaths": [
            {
                "keyPrivPath": "conf/key.priv",
                "keyPubPath": "conf/key.pub"
            }
        ],
        "maxConnections": 3,
        "tcp": {
            "endpoint": "localhost",
            "peers": [
                {
                    "endpoint": "boot0.testnet.neurochaintech.io",
                    "keyPub": {
                        "rawData": "A2SREP/2E+FH4cax+lskviIrvBPWJPf/6WO133HEwJ/2"
                    },
                    "port": "1337"
                },
                {
                    "endpoint": "boot1.testnet.neurochaintech.io",
                    "keyPub": {
                        "rawData": "A1926zw2wTjGwZffuFVhUoZHnqDY9DoRKC27R7GIZAzb"
                    },
                    "port": "1337"
                },
                {
                    "endpoint": "boot2.testnet.neurochaintech.io",
                    "keyPub": {
                        "rawData": "AwATWyNVEmYELf1MfCMA/efzWuw2ChocfxKFGrS0Q/x+"
                    },
                    "port": "1337"
                }
            ],
            "port": 1337
        }
    },
    "rest": {
        "port": 8080
    }
}